<?xml version="1.0" encoding="UTF-8"?>
<session version="1.0">
<refactoring comment="Rename type &apos;Transformer&apos; to &apos;XSL_Transformer&apos;&#x0D;&#x0A;- Original project: &apos;Xsl_Transform&apos;&#x0D;&#x0A;- Original element: &apos;Transformer&apos;&#x0D;&#x0A;- Renamed element: &apos;XSL_Transformer&apos;&#x0D;&#x0A;- Update references to refactored element&#x0D;&#x0A;- Update textual occurrences in comments and strings" description="Rename type &apos;Transformer&apos;" flags="589830" id="org.eclipse.jdt.ui.rename.type" input="/src&lt;{Transformer.java[Transformer" matchStrategy="1" name="XSL_Transformer" qualified="false" references="true" similarDeclarations="false" stamp="1454061754365" textual="false" version="1.0"/>
</session>